Análise Vertical e Horizontal — ind_analiseVH • cntdd
…
    Examples

library(cntdd)

ind_analiseVH(
.dt = dt_contabil,
.contas = c("caixaEquiv", "clientesCP"),
.contaReferenciaAV = ativoTotal,
.colEmpresa = empresa,
.colPeriodo = ano,
.output = "AVAH"
)
#> # A tibble: 60 × 7
#>    empresa   ano ativoTotal AV_aplicFinanc AV_estoques AH_aplicFinanc
#>    <chr>   <int>      <int>          <dbl>       <dbl>          <dbl>
#>  1 alpha    2016     939428         0.262       0.122         NA     
#>  2 alpha    2017    1087259         0.312       0.108          0.378 
#>  3 alpha    2018    1082219         0.218       0.144         -0.307 
#>  4 alpha    2019    1463539         0.187       0.127          0.161 
#>  5 alpha    2020    2933340         0.185       0.103          0.982 
#>  6 alpha    2021    3486116         0.0680      0.134         -0.562 
#>  7 beta     2016    7995504         0.0436      0.0858        NA     
#>  8 beta     2017    8265807         0.0466      0.0915         0.104 
#>  9 beta     2018   10844797         0.0378      0.0885         0.0640
#> 10 beta     2019   13050981         0.0497      0.0835         0.583 
#> # ℹ 50 more rows
#> # ℹ 1 more variable: AH_estoques <dbl>
…
